{
    "content": [
        {
            "campaignId": 75970917,
            "from": "2025-06-01T00:00:00.869",
            "to": "2025-06-10T23:59:59.999",
            "shopeeFrom": null,
            "shopeeTo": null,
            "data": [
                {
                    "campaignId": 75970917,
                    "shopeeMerchantId": "252234165",
                    "acos": 0.0,
                    "cpc": 0.0,
                    "from": "2025-06-01T00:00:00.869",
                    "to": "2025-06-10T23:59:59.999",
                    "shopeeFrom": 1749488400,
                    "shopeeTo": 1749574799,
                    "createdAt": "2025-06-11T22:25:02.721",
                    "id": null,
                    "title": "AMK Kemeja Pria Batik Lengan Pendek SH Wirata Ungu [3]",
                    "image": "9edabd3b0c16e98f2d050f30dd97086b",
                    "dailyBudget": 10000.0,
                    "roas": null,
                    "click": 0.0,
                    "ctr": 0.0,
                    "insight": "Biarkan tanpa perubahan",
                    "state": "paused",
                    "impression": 0.0,
                    "broadGmv": 0.0,
                    "broadOrder": 0.0,
                    "checkout": null,
                    "directOrder": 0.0,
                    "directOrderAmount": 0.0,
                    "directGmv": 0.0,
                    "directRoi": 0.0,
                    "directCir": 0.0,
                    "directCr": 0.0,
                    "cpdc": 0.0,
                    "insightBudget": null,
                    "broadRoi": 0.0,
                    "cost": 0.0,
                    "broadOrderAmount": 0.0,
                    "cr": 0.0,
                    "keywords": [],
                    "biddingStrategy": "manual",
                    "shopId": null,
                    "hasKeywords": false,
                    "acosRatio": null,
                    "cpcRatio": null,
                    "clickRatio": null,
                    "impressionRatio": null,
                    "costRatio": null,
                    "ctrRatio": null,
                    "broadGmvRatio": null,
                    "broadOrderRatio": null,
                    "checkoutRatio": null,
                    "directOrderRatio": null,
                    "directOrderAmountRatio": null,
                    "directGmvRatio": null,
                    "directRoiRatio": null,
                    "directCirRatio": null,
                    "directCrRatio": null,
                    "cpdcRatio": null,
                    "broadRoiRatio": null,
                    "crRatio": null,
                    "broadOrderAmountRatio": null,
                    "type": "product_manual",
                    "customRoas": null,
                    "hasCustomRoas": false,
                    "dailyBudgetAvg": null,
                    "roasAvg": null,
                    "clickAvg": null,
                    "ctrAvg": null,
                    "impressionAvg": null,
                    "broadGmvAvg": null,
                    "broadOrderAvg": null,
                    "checkoutAvg": null,
                    "directOrderAvg": null,
                    "directOrderAmountAvg": null,
                    "directGmvAvg": null,
                    "directRoiAvg": null,
                    "directCirAvg": null,
                    "directCrAvg": null,
                    "cpdcAvg": null,
                    "broadRoiAvg": null,
                    "costAvg": null,
                    "broadOrderAmountAvg": null,
                    "crAvg": null,
                    "salesClassification": "UNKNOWN",
                    "productStocks": null,
                    "hasProductStock": null,
                    "productPlacement": "targeting"
                }
            ]
        },
        {
            "campaignId": 80000177,
            "from": "2025-06-01T00:00:00.869",
            "to": "2025-06-10T23:59:59.999",
            "shopeeFrom": null,
            "shopeeTo": null,
            "data": [
                {
                    "campaignId": 80000177,
                    "shopeeMerchantId": "252234165",
                    "acos": 0.0,
                    "cpc": 0.0,
                    "from": "2025-06-01T00:00:00.869",
                    "to": "2025-06-10T23:59:59.999",
                    "shopeeFrom": 1749488400,
                    "shopeeTo": 1749574799,
                    "createdAt": "2025-06-11T22:25:02.721",
                    "id": null,
                    "title": "AMK Kemeja Pria Lengan Pendek SH Lesmana - navy [2]",
                    "image": "sg-11134201-22110-whlnaxv1vfjv53",
                    "dailyBudget": 15000.0,
                    "roas": null,
                    "click": 0.0,
                    "ctr": 0.0,
                    "insight": "Biarkan tanpa perubahan",
                    "state": "ended",
                    "impression": 0.0,
                    "broadGmv": 0.0,
                    "broadOrder": 0.0,
                    "checkout": null,
                    "directOrder": 0.0,
                    "directOrderAmount": 0.0,
                    "directGmv": 0.0,
                    "directRoi": 0.0,
                    "directCir": 0.0,
                    "directCr": 0.0,
                    "cpdc": 0.0,
                    "insightBudget": null,
                    "broadRoi": 0.0,
                    "cost": 0.0,
                    "broadOrderAmount": 0.0,
                    "cr": 0.0,
                    "keywords": [],
                    "biddingStrategy": "manual",
                    "shopId": null,
                    "hasKeywords": false,
                    "acosRatio": null,
                    "cpcRatio": null,
                    "clickRatio": null,
                    "impressionRatio": null,
                    "costRatio": null,
                    "ctrRatio": null,
                    "broadGmvRatio": null,
                    "broadOrderRatio": null,
                    "checkoutRatio": null,
                    "directOrderRatio": null,
                    "directOrderAmountRatio": null,
                    "directGmvRatio": null,
                    "directRoiRatio": null,
                    "directCirRatio": null,
                    "directCrRatio": null,
                    "cpdcRatio": null,
                    "broadRoiRatio": null,
                    "crRatio": null,
                    "broadOrderAmountRatio": null,
                    "type": "product_manual",
                    "customRoas": null,
                    "hasCustomRoas": false,
                    "dailyBudgetAvg": null,
                    "roasAvg": null,
                    "clickAvg": null,
                    "ctrAvg": null,
                    "impressionAvg": null,
                    "broadGmvAvg": null,
                    "broadOrderAvg": null,
                    "checkoutAvg": null,
                    "directOrderAvg": null,
                    "directOrderAmountAvg": null,
                    "directGmvAvg": null,
                    "directRoiAvg": null,
                    "directCirAvg": null,
                    "directCrAvg": null,
                    "cpdcAvg": null,
                    "broadRoiAvg": null,
                    "costAvg": null,
                    "broadOrderAmountAvg": null,
                    "crAvg": null,
                    "salesClassification": "UNKNOWN",
                    "productStocks": null,
                    "hasProductStock": null,
                    "productPlacement": "targeting"
                }
            ]
        },
        {
            "campaignId": 80000176,
            "from": "2025-06-01T00:00:00.869",
            "to": "2025-06-10T23:59:59.999",
            "shopeeFrom": null,
            "shopeeTo": null,
            "data": [
                {
                    "campaignId": 80000176,
                    "shopeeMerchantId": "252234165",
                    "acos": 0.0,
                    "cpc": 0.0,
                    "from": "2025-06-01T00:00:00.869",
                    "to": "2025-06-10T23:59:59.999",
                    "shopeeFrom": 1749488400,
                    "shopeeTo": 1749574799,
                    "createdAt": "2025-06-11T22:25:02.721",
                    "id": null,
                    "title": "AMK Kemeja Pria Lengan Pendek SH Lesmana - Coklat [2]",
                    "image": "sg-11134201-22110-bnx0br93vfjv26",
                    "dailyBudget": 25000.0,
                    "roas": null,
                    "click": 0.0,
                    "ctr": 0.0,
                    "insight": "Biarkan tanpa perubahan",
                    "state": "ended",
                    "impression": 0.0,
                    "broadGmv": 0.0,
                    "broadOrder": 0.0,
                    "checkout": null,
                    "directOrder": 0.0,
                    "directOrderAmount": 0.0,
                    "directGmv": 0.0,
                    "directRoi": 0.0,
                    "directCir": 0.0,
                    "directCr": 0.0,
                    "cpdc": 0.0,
                    "insightBudget": null,
                    "broadRoi": 0.0,
                    "cost": 0.0,
                    "broadOrderAmount": 0.0,
                    "cr": 0.0,
                    "keywords": [],
                    "biddingStrategy": "manual",
                    "shopId": null,
                    "hasKeywords": false,
                    "acosRatio": null,
                    "cpcRatio": null,
                    "clickRatio": null,
                    "impressionRatio": null,
                    "costRatio": null,
                    "ctrRatio": null,
                    "broadGmvRatio": null,
                    "broadOrderRatio": null,
                    "checkoutRatio": null,
                    "directOrderRatio": null,
                    "directOrderAmountRatio": null,
                    "directGmvRatio": null,
                    "directRoiRatio": null,
                    "directCirRatio": null,
                    "directCrRatio": null,
                    "cpdcRatio": null,
                    "broadRoiRatio": null,
                    "crRatio": null,
                    "broadOrderAmountRatio": null,
                    "type": "product_manual",
                    "customRoas": null,
                    "hasCustomRoas": false,
                    "dailyBudgetAvg": null,
                    "roasAvg": null,
                    "clickAvg": null,
                    "ctrAvg": null,
                    "impressionAvg": null,
                    "broadGmvAvg": null,
                    "broadOrderAvg": null,
                    "checkoutAvg": null,
                    "directOrderAvg": null,
                    "directOrderAmountAvg": null,
                    "directGmvAvg": null,
                    "directRoiAvg": null,
                    "directCirAvg": null,
                    "directCrAvg": null,
                    "cpdcAvg": null,
                    "broadRoiAvg": null,
                    "costAvg": null,
                    "broadOrderAmountAvg": null,
                    "crAvg": null,
                    "salesClassification": "UNKNOWN",
                    "productStocks": null,
                    "hasProductStock": null,
                    "productPlacement": "targeting"
                }
            ]
        },
        dan data lainnya dibawah yang saya koment
    ],
    "pageable": {
        "pageNumber": 1,
        "pageSize": 50,
        "sort": {
            "sorted": false,
            "empty": true,
            "unsorted": true
        },
        "offset": 50,
        "paged": true,
        "unpaged": false
    },
    "last": false,
    "totalPages": 23,
    "totalElements": 1123,
    "size": 50,
    "number": 1,
    "sort": {
        "sorted": false,
        "empty": true,
        "unsorted": true
    },
    "first": false,
    "numberOfElements": 50,
    "empty": false
}